Proyecto1/COUNTER_impl/counter.vcd
$date
     Jun 09, 2018       11:16:41
$end

$version
 SystemC 2.3.1-Accellera --- Jun  7 2018 23:49:12
$end

$timescale
     1 ps
$end

$scope module SystemC $end
$var wire    1  aaaaa  clock       $end
$var wire    1  aaaab  reset       $end
$var wire    1  aaaac  enable       $end
$var wire    1  aaaad  up       $end
$var wire   12  aaaae  count [11:0]  $end
$upscope $end
$enddefinitions  $end

$comment
All initial values are dumped below at time 1e-09 sec = 1000 timescale units.
$end

$dumpvars
0aaaaa
1aaaab
0aaaac
0aaaad
b0 aaaae
$end

#2000
1aaaaa

#3000
0aaaaa

#4000
1aaaaa

#5000
0aaaaa

#6000
1aaaaa

#7000
0aaaaa

#8000
1aaaaa

#9000
0aaaaa

#10000
1aaaaa

#11000
0aaaaa

#12000
1aaaaa

#13000
0aaaaa

#14000
1aaaaa

#15000
0aaaaa

#16000
1aaaaa

#17000
0aaaaa

#18000
1aaaaa

#19000
0aaaaa

#20000
1aaaaa

#21000
0aaaaa

#22000
1aaaaa

#23000
0aaaaa

#24000
1aaaaa

#25000
0aaaaa

#26000
1aaaaa

#27000
0aaaaa
0aaaab

#28000
1aaaaa

#29000
0aaaaa

#30000
1aaaaa

#31000
0aaaaa

#32000
1aaaaa

#33000
0aaaaa

#34000
1aaaaa

#35000
0aaaaa

#36000
1aaaaa

#37000
0aaaaa

#38000
1aaaaa

#39000
0aaaaa

#40000
1aaaaa

#41000
0aaaaa

#42000
1aaaaa

#43000
0aaaaa

#44000
1aaaaa

#45000
0aaaaa

#46000
1aaaaa

#47000
0aaaaa

#48000
1aaaaa

#49000
0aaaaa

#50000
1aaaaa

#51000
0aaaaa

#52000
1aaaaa

#53000
0aaaaa
1aaaab

#54000
1aaaaa

#55000
0aaaaa

#56000
1aaaaa

#57000
0aaaaa

#58000
1aaaaa

#59000
0aaaaa

#60000
1aaaaa

#61000
0aaaaa

#62000
1aaaaa

#63000
0aaaaa

#64000
1aaaaa

#65000
0aaaaa

#66000
1aaaaa

#67000
0aaaaa

#68000
1aaaaa

#69000
0aaaaa

#70000
1aaaaa

#71000
0aaaaa

#72000
1aaaaa

#73000
0aaaaa

#74000
1aaaaa

#75000
0aaaaa

#76000
1aaaaa

#77000
0aaaaa

#78000
1aaaaa

#79000
0aaaaa
1aaaac

#80000
1aaaaa
b111111111111 aaaae

#81000
0aaaaa

#82000
1aaaaa
b111111111110 aaaae

#83000
0aaaaa

#84000
1aaaaa
b111111111101 aaaae

#85000
0aaaaa

#86000
1aaaaa
b111111111100 aaaae

#87000
0aaaaa

#88000
1aaaaa
b111111111011 aaaae

#89000
0aaaaa

#90000
1aaaaa
b111111111010 aaaae

#91000
0aaaaa

#92000
1aaaaa
b111111111001 aaaae

#93000
0aaaaa

#94000
1aaaaa
b111111111000 aaaae

#95000
0aaaaa

#96000
1aaaaa
b111111110111 aaaae

#97000
0aaaaa

#98000
1aaaaa
b111111110110 aaaae

#99000
0aaaaa

#100000
1aaaaa
b111111110101 aaaae

#101000
0aaaaa

#102000
1aaaaa
b111111110100 aaaae

#103000
0aaaaa

#104000
1aaaaa
b111111110011 aaaae

#105000
0aaaaa

#106000
1aaaaa
b111111110010 aaaae

#107000
0aaaaa

#108000
1aaaaa
b111111110001 aaaae

#109000
0aaaaa

#110000
1aaaaa
b111111110000 aaaae

#111000
0aaaaa

#112000
1aaaaa
b111111101111 aaaae

#113000
0aaaaa

#114000
1aaaaa
b111111101110 aaaae

#115000
0aaaaa

#116000
1aaaaa
b111111101101 aaaae

#117000
0aaaaa

#118000
1aaaaa
b111111101100 aaaae

#119000
0aaaaa

#120000
1aaaaa
b111111101011 aaaae

#121000
0aaaaa

#122000
1aaaaa
b111111101010 aaaae

#123000
0aaaaa

#124000
1aaaaa
b111111101001 aaaae

#125000
0aaaaa

#126000
1aaaaa
b111111101000 aaaae

#127000
0aaaaa

#128000
1aaaaa
b111111100111 aaaae

#129000
0aaaaa

#130000
1aaaaa
b111111100110 aaaae

#131000
0aaaaa

#132000
1aaaaa
b111111100101 aaaae

#133000
0aaaaa

#134000
1aaaaa
b111111100100 aaaae

#135000
0aaaaa

#136000
1aaaaa
b111111100011 aaaae

#137000
0aaaaa

#138000
1aaaaa
b111111100010 aaaae

#139000
0aaaaa

#140000
1aaaaa
b111111100001 aaaae

#141000
0aaaaa

#142000
1aaaaa
b111111100000 aaaae

#143000
0aaaaa

#144000
1aaaaa
b111111011111 aaaae

#145000
0aaaaa

#146000
1aaaaa
b111111011110 aaaae

#147000
0aaaaa

#148000
1aaaaa
b111111011101 aaaae

#149000
0aaaaa

#150000
1aaaaa
b111111011100 aaaae

#151000
0aaaaa

#152000
1aaaaa
b111111011011 aaaae

#153000
0aaaaa

#154000
1aaaaa
b111111011010 aaaae

#155000
0aaaaa

#156000
1aaaaa
b111111011001 aaaae

#157000
0aaaaa

#158000
1aaaaa
b111111011000 aaaae

#159000
0aaaaa

#160000
1aaaaa
b111111010111 aaaae

#161000
0aaaaa

#162000
1aaaaa
b111111010110 aaaae

#163000
0aaaaa

#164000
1aaaaa
b111111010101 aaaae

#165000
0aaaaa

#166000
1aaaaa
b111111010100 aaaae

#167000
0aaaaa

#168000
1aaaaa
b111111010011 aaaae

#169000
0aaaaa

#170000
1aaaaa
b111111010010 aaaae

#171000
0aaaaa

#172000
1aaaaa
b111111010001 aaaae

#173000
0aaaaa

#174000
1aaaaa
b111111010000 aaaae

#175000
0aaaaa

#176000
1aaaaa
b111111001111 aaaae

#177000
0aaaaa

#178000
1aaaaa
b111111001110 aaaae

#179000
0aaaaa

#180000
1aaaaa
b111111001101 aaaae

#181000
0aaaaa

#182000
1aaaaa
b111111001100 aaaae

#183000
0aaaaa

#184000
1aaaaa
b111111001011 aaaae

#185000
0aaaaa

#186000
1aaaaa
b111111001010 aaaae

#187000
0aaaaa

#188000
1aaaaa
b111111001001 aaaae

#189000
0aaaaa

#190000
1aaaaa
b111111001000 aaaae

#191000
0aaaaa

#192000
1aaaaa
b111111000111 aaaae

#193000
0aaaaa

#194000
1aaaaa
b111111000110 aaaae

#195000
0aaaaa

#196000
1aaaaa
b111111000101 aaaae

#197000
0aaaaa

#198000
1aaaaa
b111111000100 aaaae

#199000
0aaaaa

#200000
1aaaaa
b111111000011 aaaae

#201000
0aaaaa

#202000
1aaaaa
b111111000010 aaaae

#203000
0aaaaa

#204000
1aaaaa
b111111000001 aaaae

#205000
0aaaaa

#206000
1aaaaa
b111111000000 aaaae

#207000
0aaaaa

#208000
1aaaaa
b111110111111 aaaae

#209000
0aaaaa

#210000
1aaaaa
b111110111110 aaaae

#211000
0aaaaa

#212000
1aaaaa
b111110111101 aaaae

#213000
0aaaaa

#214000
1aaaaa
b111110111100 aaaae

#215000
0aaaaa

#216000
1aaaaa
b111110111011 aaaae

#217000
0aaaaa

#218000
1aaaaa
b111110111010 aaaae

#219000
0aaaaa

#220000
1aaaaa
b111110111001 aaaae

#221000
0aaaaa

#222000
1aaaaa
b111110111000 aaaae

#223000
0aaaaa

#224000
1aaaaa
b111110110111 aaaae

#225000
0aaaaa

#226000
1aaaaa
b111110110110 aaaae

#227000
0aaaaa

#228000
1aaaaa
b111110110101 aaaae

#229000
0aaaaa

#230000
1aaaaa
b111110110100 aaaae

#231000
0aaaaa

#232000
1aaaaa
b111110110011 aaaae

#233000
0aaaaa

#234000
1aaaaa
b111110110010 aaaae

#235000
0aaaaa

#236000
1aaaaa
b111110110001 aaaae

#237000
0aaaaa

#238000
1aaaaa
b111110110000 aaaae

#239000
0aaaaa

#240000
1aaaaa
b111110101111 aaaae

#241000
0aaaaa

#242000
1aaaaa
b111110101110 aaaae

#243000
0aaaaa

#244000
1aaaaa
b111110101101 aaaae

#245000
0aaaaa

#246000
1aaaaa
b111110101100 aaaae

#247000
0aaaaa

#248000
1aaaaa
b111110101011 aaaae

#249000
0aaaaa

#250000
1aaaaa
b111110101010 aaaae

#251000
0aaaaa

#252000
1aaaaa
b111110101001 aaaae

#253000
0aaaaa

#254000
1aaaaa
b111110101000 aaaae

#255000
0aaaaa

#256000
1aaaaa
b111110100111 aaaae

#257000
0aaaaa

#258000
1aaaaa
b111110100110 aaaae

#259000
0aaaaa

#260000
1aaaaa
b111110100101 aaaae

#261000
0aaaaa

#262000
1aaaaa
b111110100100 aaaae

#263000
0aaaaa

#264000
1aaaaa
b111110100011 aaaae

#265000
0aaaaa

#266000
1aaaaa
b111110100010 aaaae

#267000
0aaaaa

#268000
1aaaaa
b111110100001 aaaae

#269000
0aaaaa

#270000
1aaaaa
b111110100000 aaaae

#271000
0aaaaa

#272000
1aaaaa
b111110011111 aaaae

#273000
0aaaaa

#274000
1aaaaa
b111110011110 aaaae

#275000
0aaaaa

#276000
1aaaaa
b111110011101 aaaae

#277000
0aaaaa

#278000
1aaaaa
b111110011100 aaaae

#279000
0aaaaa

#280000
1aaaaa
b111110011011 aaaae

#281000
0aaaaa

#282000
1aaaaa
b111110011010 aaaae

#283000
0aaaaa

#284000
1aaaaa
b111110011001 aaaae

#285000
0aaaaa

#286000
1aaaaa
b111110011000 aaaae

#287000
0aaaaa

#288000
1aaaaa
b111110010111 aaaae

#289000
0aaaaa

#290000
1aaaaa
b111110010110 aaaae

#291000
0aaaaa

#292000
1aaaaa
b111110010101 aaaae

#293000
0aaaaa

#294000
1aaaaa
b111110010100 aaaae

#295000
0aaaaa

#296000
1aaaaa
b111110010011 aaaae

#297000
0aaaaa

#298000
1aaaaa
b111110010010 aaaae

#299000
0aaaaa

#300000
1aaaaa
b111110010001 aaaae

#301000
0aaaaa

#302000
1aaaaa
b111110010000 aaaae

#303000
0aaaaa

#304000
1aaaaa
b111110001111 aaaae

#305000
0aaaaa

#306000
1aaaaa
b111110001110 aaaae

#307000
0aaaaa

#308000
1aaaaa
b111110001101 aaaae

#309000
0aaaaa

#310000
1aaaaa
b111110001100 aaaae

#311000
0aaaaa

#312000
1aaaaa
b111110001011 aaaae

#313000
0aaaaa

#314000
1aaaaa
b111110001010 aaaae

#315000
0aaaaa

#316000
1aaaaa
b111110001001 aaaae

#317000
0aaaaa

#318000
1aaaaa
b111110001000 aaaae

#319000
0aaaaa

#320000
1aaaaa
b111110000111 aaaae

#321000
0aaaaa

#322000
1aaaaa
b111110000110 aaaae

#323000
0aaaaa

#324000
1aaaaa
b111110000101 aaaae

#325000
0aaaaa

#326000
1aaaaa
b111110000100 aaaae

#327000
0aaaaa

#328000
1aaaaa
b111110000011 aaaae

#329000
0aaaaa

#330000
1aaaaa
b111110000010 aaaae

#331000
0aaaaa

#332000
1aaaaa
b111110000001 aaaae

#333000
0aaaaa

#334000
1aaaaa
b111110000000 aaaae

#335000
0aaaaa

#336000
1aaaaa
b111101111111 aaaae

#337000
0aaaaa

#338000
1aaaaa
b111101111110 aaaae

#339000
0aaaaa

#340000
1aaaaa
b111101111101 aaaae

#341000
0aaaaa

#342000
1aaaaa
b111101111100 aaaae

#343000
0aaaaa

#344000
1aaaaa
b111101111011 aaaae

#345000
0aaaaa

#346000
1aaaaa
b111101111010 aaaae

#347000
0aaaaa

#348000
1aaaaa
b111101111001 aaaae

#349000
0aaaaa

#350000
1aaaaa
b111101111000 aaaae

#351000
0aaaaa

#352000
1aaaaa
b111101110111 aaaae

#353000
0aaaaa

#354000
1aaaaa
b111101110110 aaaae

#355000
0aaaaa

#356000
1aaaaa
b111101110101 aaaae

#357000
0aaaaa

#358000
1aaaaa
b111101110100 aaaae

#359000
0aaaaa

#360000
1aaaaa
b111101110011 aaaae

#361000
0aaaaa

#362000
1aaaaa
b111101110010 aaaae

#363000
0aaaaa

#364000
1aaaaa
b111101110001 aaaae

#365000
0aaaaa

#366000
1aaaaa
b111101110000 aaaae

#367000
0aaaaa

#368000
1aaaaa
b111101101111 aaaae

#369000
0aaaaa

#370000
1aaaaa
b111101101110 aaaae

#371000
0aaaaa

#372000
1aaaaa
b111101101101 aaaae

#373000
0aaaaa

#374000
1aaaaa
b111101101100 aaaae

#375000
0aaaaa

#376000
1aaaaa
b111101101011 aaaae

#377000
0aaaaa

#378000
1aaaaa
b111101101010 aaaae

#379000
0aaaaa

#380000
1aaaaa
b111101101001 aaaae

#381000
0aaaaa

#382000
1aaaaa
b111101101000 aaaae

#383000
0aaaaa

#384000
1aaaaa
b111101100111 aaaae

#385000
0aaaaa

#386000
1aaaaa
b111101100110 aaaae

#387000
0aaaaa

#388000
1aaaaa
b111101100101 aaaae

#389000
0aaaaa

#390000
1aaaaa
b111101100100 aaaae

#391000
0aaaaa

#392000
1aaaaa
b111101100011 aaaae

#393000
0aaaaa

#394000
1aaaaa
b111101100010 aaaae

#395000
0aaaaa

#396000
1aaaaa
b111101100001 aaaae

#397000
0aaaaa

#398000
1aaaaa
b111101100000 aaaae

#399000
0aaaaa

#400000
1aaaaa
b111101011111 aaaae

#401000
0aaaaa

#402000
1aaaaa
b111101011110 aaaae

#403000
0aaaaa

#404000
1aaaaa
b111101011101 aaaae

#405000
0aaaaa

#406000
1aaaaa
b111101011100 aaaae

#407000
0aaaaa

#408000
1aaaaa
b111101011011 aaaae

#409000
0aaaaa

#410000
1aaaaa
b111101011010 aaaae

#411000
0aaaaa

#412000
1aaaaa
b111101011001 aaaae

#413000
0aaaaa

#414000
1aaaaa
b111101011000 aaaae

#415000
0aaaaa

#416000
1aaaaa
b111101010111 aaaae

#417000
0aaaaa

#418000
1aaaaa
b111101010110 aaaae

#419000
0aaaaa

#420000
1aaaaa
b111101010101 aaaae

#421000
0aaaaa

#422000
1aaaaa
b111101010100 aaaae

#423000
0aaaaa

#424000
1aaaaa
b111101010011 aaaae

#425000
0aaaaa

#426000
1aaaaa
b111101010010 aaaae

#427000
0aaaaa

#428000
1aaaaa
b111101010001 aaaae

#429000
0aaaaa

#430000
1aaaaa
b111101010000 aaaae

#431000
0aaaaa

#432000
1aaaaa
b111101001111 aaaae

#433000
0aaaaa

#434000
1aaaaa
b111101001110 aaaae

#435000
0aaaaa

#436000
1aaaaa
b111101001101 aaaae

#437000
0aaaaa

#438000
1aaaaa
b111101001100 aaaae

#439000
0aaaaa

#440000
1aaaaa
b111101001011 aaaae

#441000
0aaaaa

#442000
1aaaaa
b111101001010 aaaae

#443000
0aaaaa

#444000
1aaaaa
b111101001001 aaaae

#445000
0aaaaa

#446000
1aaaaa
b111101001000 aaaae

#447000
0aaaaa

#448000
1aaaaa
b111101000111 aaaae

#449000
0aaaaa

#450000
1aaaaa
b111101000110 aaaae

#451000
0aaaaa

#452000
1aaaaa
b111101000101 aaaae

#453000
0aaaaa

#454000
1aaaaa
b111101000100 aaaae

#455000
0aaaaa

#456000
1aaaaa
b111101000011 aaaae

#457000
0aaaaa

#458000
1aaaaa
b111101000010 aaaae

#459000
0aaaaa

#460000
1aaaaa
b111101000001 aaaae

#461000
0aaaaa

#462000
1aaaaa
b111101000000 aaaae

#463000
0aaaaa

#464000
1aaaaa
b111100111111 aaaae

#465000
0aaaaa

#466000
1aaaaa
b111100111110 aaaae

#467000
0aaaaa

#468000
1aaaaa
b111100111101 aaaae

#469000
0aaaaa

#470000
1aaaaa
b111100111100 aaaae

#471000
0aaaaa

#472000
1aaaaa
b111100111011 aaaae

#473000
0aaaaa

#474000
1aaaaa
b111100111010 aaaae

#475000
0aaaaa

#476000
1aaaaa
b111100111001 aaaae

#477000
0aaaaa

#478000
1aaaaa
b111100111000 aaaae

#479000
0aaaaa

#480000
1aaaaa
b111100110111 aaaae

#481000
0aaaaa

#482000
1aaaaa
b111100110110 aaaae

#483000
0aaaaa

#484000
1aaaaa
b111100110101 aaaae

#485000
0aaaaa

#486000
1aaaaa
b111100110100 aaaae

#487000
0aaaaa

#488000
1aaaaa
b111100110011 aaaae

#489000
0aaaaa

#490000
1aaaaa
b111100110010 aaaae

#491000
0aaaaa

#492000
1aaaaa
b111100110001 aaaae

#493000
0aaaaa

#494000
1aaaaa
b111100110000 aaaae

#495000
0aaaaa

#496000
1aaaaa
b111100101111 aaaae

#497000
0aaaaa

#498000
1aaaaa
b111100101110 aaaae

#499000
0aaaaa

#500000
1aaaaa
b111100101101 aaaae

#501000
0aaaaa

#502000
1aaaaa
b111100101100 aaaae

#503000
0aaaaa

#504000
1aaaaa
b111100101011 aaaae

#505000
0aaaaa

#506000
1aaaaa
b111100101010 aaaae

#507000
0aaaaa

#508000
1aaaaa
b111100101001 aaaae

#509000
0aaaaa

#510000
1aaaaa
b111100101000 aaaae

#511000
0aaaaa

#512000
1aaaaa
b111100100111 aaaae

#513000
0aaaaa

#514000
1aaaaa
b111100100110 aaaae

#515000
0aaaaa

#516000
1aaaaa
b111100100101 aaaae

#517000
0aaaaa

#518000
1aaaaa
b111100100100 aaaae

#519000
0aaaaa

#520000
1aaaaa
b111100100011 aaaae

#521000
0aaaaa

#522000
1aaaaa
b111100100010 aaaae

#523000
0aaaaa

#524000
1aaaaa
b111100100001 aaaae

#525000
0aaaaa

#526000
1aaaaa
b111100100000 aaaae

#527000
0aaaaa

#528000
1aaaaa
b111100011111 aaaae

#529000
0aaaaa

#530000
1aaaaa
b111100011110 aaaae

#531000
0aaaaa

#532000
1aaaaa
b111100011101 aaaae

#533000
0aaaaa

#534000
1aaaaa
b111100011100 aaaae

#535000
0aaaaa

#536000
1aaaaa
b111100011011 aaaae

#537000
0aaaaa

#538000
1aaaaa
b111100011010 aaaae

#539000
0aaaaa

#540000
1aaaaa
b111100011001 aaaae

#541000
0aaaaa

#542000
1aaaaa
b111100011000 aaaae

#543000
0aaaaa

#544000
1aaaaa
b111100010111 aaaae

#545000
0aaaaa

#546000
1aaaaa
b111100010110 aaaae

#547000
0aaaaa

#548000
1aaaaa
b111100010101 aaaae

#549000
0aaaaa

#550000
1aaaaa
b111100010100 aaaae

#551000
0aaaaa

#552000
1aaaaa
b111100010011 aaaae

#553000
0aaaaa

#554000
1aaaaa
b111100010010 aaaae

#555000
0aaaaa

#556000
1aaaaa
b111100010001 aaaae

#557000
0aaaaa

#558000
1aaaaa
b111100010000 aaaae

#559000
0aaaaa

#560000
1aaaaa
b111100001111 aaaae

#561000
0aaaaa

#562000
1aaaaa
b111100001110 aaaae

#563000
0aaaaa

#564000
1aaaaa
b111100001101 aaaae

#565000
0aaaaa

#566000
1aaaaa
b111100001100 aaaae

#567000
0aaaaa

#568000
1aaaaa
b111100001011 aaaae

#569000
0aaaaa

#570000
1aaaaa
b111100001010 aaaae

#571000
0aaaaa

#572000
1aaaaa
b111100001001 aaaae

#573000
0aaaaa

#574000
1aaaaa
b111100001000 aaaae

#575000
0aaaaa

#576000
1aaaaa
b111100000111 aaaae

#577000
0aaaaa

#578000
1aaaaa
b111100000110 aaaae

#579000
0aaaaa

#580000
1aaaaa
b111100000101 aaaae

#581000
0aaaaa

#582000
1aaaaa
b111100000100 aaaae

#583000
0aaaaa

#584000
1aaaaa
b111100000011 aaaae

#585000
0aaaaa

#586000
1aaaaa
b111100000010 aaaae

#587000
0aaaaa

#588000
1aaaaa
b111100000001 aaaae

#589000
0aaaaa

#590000
1aaaaa
b111100000000 aaaae

#591000
0aaaaa

#592000
1aaaaa
b111011111111 aaaae

#593000
0aaaaa

#594000
1aaaaa
b111011111110 aaaae

#595000
0aaaaa

#596000
1aaaaa
b111011111101 aaaae

#597000
0aaaaa

#598000
1aaaaa
b111011111100 aaaae

#599000
0aaaaa

#600000
1aaaaa
b111011111011 aaaae

#601000
0aaaaa

#602000
1aaaaa
b111011111010 aaaae

#603000
0aaaaa

#604000
1aaaaa
b111011111001 aaaae

#605000
0aaaaa

#606000
1aaaaa
b111011111000 aaaae

#607000
0aaaaa

#608000
1aaaaa
b111011110111 aaaae

#609000
0aaaaa

#610000
1aaaaa
b111011110110 aaaae

#611000
0aaaaa

#612000
1aaaaa
b111011110101 aaaae

#613000
0aaaaa

#614000
1aaaaa
b111011110100 aaaae

#615000
0aaaaa

#616000
1aaaaa
b111011110011 aaaae

#617000
0aaaaa

#618000
1aaaaa
b111011110010 aaaae

#619000
0aaaaa

#620000
1aaaaa
b111011110001 aaaae

#621000
0aaaaa

#622000
1aaaaa
b111011110000 aaaae

#623000
0aaaaa

#624000
1aaaaa
b111011101111 aaaae

#625000
0aaaaa

#626000
1aaaaa
b111011101110 aaaae

#627000
0aaaaa

#628000
1aaaaa
b111011101101 aaaae

#629000
0aaaaa

#630000
1aaaaa
b111011101100 aaaae

#631000
0aaaaa

#632000
1aaaaa
b111011101011 aaaae

#633000
0aaaaa

#634000
1aaaaa
b111011101010 aaaae

#635000
0aaaaa

#636000
1aaaaa
b111011101001 aaaae

#637000
0aaaaa

#638000
1aaaaa
b111011101000 aaaae

#639000
0aaaaa

#640000
1aaaaa
b111011100111 aaaae

#641000
0aaaaa

#642000
1aaaaa
b111011100110 aaaae

#643000
0aaaaa

#644000
1aaaaa
b111011100101 aaaae

#645000
0aaaaa

#646000
1aaaaa
b111011100100 aaaae

#647000
0aaaaa

#648000
1aaaaa
b111011100011 aaaae

#649000
0aaaaa

#650000
1aaaaa
b111011100010 aaaae

#651000
0aaaaa

#652000
1aaaaa
b111011100001 aaaae

#653000
0aaaaa

#654000
1aaaaa
b111011100000 aaaae

#655000
0aaaaa

#656000
1aaaaa
b111011011111 aaaae

#657000
0aaaaa

#658000
1aaaaa
b111011011110 aaaae

#659000
0aaaaa

#660000
1aaaaa
b111011011101 aaaae

#661000
0aaaaa

#662000
1aaaaa
b111011011100 aaaae

#663000
0aaaaa

#664000
1aaaaa
b111011011011 aaaae

#665000
0aaaaa

#666000
1aaaaa
b111011011010 aaaae

#667000
0aaaaa

#668000
1aaaaa
b111011011001 aaaae

#669000
0aaaaa

#670000
1aaaaa
b111011011000 aaaae

#671000
0aaaaa

#672000
1aaaaa
b111011010111 aaaae

#673000
0aaaaa

#674000
1aaaaa
b111011010110 aaaae

#675000
0aaaaa

#676000
1aaaaa
b111011010101 aaaae

#677000
0aaaaa

#678000
1aaaaa
b111011010100 aaaae

#679000
0aaaaa

#680000
1aaaaa
b111011010011 aaaae

#681000
0aaaaa

#682000
1aaaaa
b111011010010 aaaae

#683000
0aaaaa

#684000
1aaaaa
b111011010001 aaaae

#685000
0aaaaa

#686000
1aaaaa
b111011010000 aaaae

#687000
0aaaaa

#688000
1aaaaa
b111011001111 aaaae

#689000
0aaaaa

#690000
1aaaaa
b111011001110 aaaae

#691000
0aaaaa

#692000
1aaaaa
b111011001101 aaaae

#693000
0aaaaa

#694000
1aaaaa
b111011001100 aaaae

#695000
0aaaaa

#696000
1aaaaa
b111011001011 aaaae

#697000
0aaaaa

#698000
1aaaaa
b111011001010 aaaae

#699000
0aaaaa

#700000
1aaaaa
b111011001001 aaaae

#701000
0aaaaa

#702000
1aaaaa
b111011001000 aaaae

#703000
0aaaaa

#704000
1aaaaa
b111011000111 aaaae

#705000
0aaaaa

#706000
1aaaaa
b111011000110 aaaae

#707000
0aaaaa

#708000
1aaaaa
b111011000101 aaaae

#709000
0aaaaa

#710000
1aaaaa
b111011000100 aaaae

#711000
0aaaaa

#712000
1aaaaa
b111011000011 aaaae

#713000
0aaaaa

#714000
1aaaaa
b111011000010 aaaae

#715000
0aaaaa

#716000
1aaaaa
b111011000001 aaaae

#717000
0aaaaa

#718000
1aaaaa
b111011000000 aaaae

#719000
0aaaaa

#720000
1aaaaa
b111010111111 aaaae

#721000
0aaaaa

#722000
1aaaaa
b111010111110 aaaae

#723000
0aaaaa

#724000
1aaaaa
b111010111101 aaaae

#725000
0aaaaa

#726000
1aaaaa
b111010111100 aaaae

#727000
0aaaaa

#728000
1aaaaa
b111010111011 aaaae

#729000
0aaaaa

#730000
1aaaaa
b111010111010 aaaae

#731000
0aaaaa

#732000
1aaaaa
b111010111001 aaaae

#733000
0aaaaa

#734000
1aaaaa
b111010111000 aaaae

#735000
0aaaaa

#736000
1aaaaa
b111010110111 aaaae

#737000
0aaaaa

#738000
1aaaaa
b111010110110 aaaae

#739000
0aaaaa

#740000
1aaaaa
b111010110101 aaaae

#741000
0aaaaa

#742000
1aaaaa
b111010110100 aaaae

#743000
0aaaaa

#744000
1aaaaa
b111010110011 aaaae

#745000
0aaaaa

#746000
1aaaaa
b111010110010 aaaae

#747000
0aaaaa

#748000
1aaaaa
b111010110001 aaaae

#749000
0aaaaa

#750000
1aaaaa
b111010110000 aaaae

#751000
0aaaaa

#752000
1aaaaa
b111010101111 aaaae

#753000
0aaaaa

#754000
1aaaaa
b111010101110 aaaae

#755000
0aaaaa

#756000
1aaaaa
b111010101101 aaaae

#757000
0aaaaa

#758000
1aaaaa
b111010101100 aaaae

#759000
0aaaaa

#760000
1aaaaa
b111010101011 aaaae

#761000
0aaaaa

#762000
1aaaaa
b111010101010 aaaae

#763000
0aaaaa

#764000
1aaaaa
b111010101001 aaaae

#765000
0aaaaa

#766000
1aaaaa
b111010101000 aaaae

#767000
0aaaaa

#768000
1aaaaa
b111010100111 aaaae

#769000
0aaaaa

#770000
1aaaaa
b111010100110 aaaae

#771000
0aaaaa

#772000
1aaaaa
b111010100101 aaaae

#773000
0aaaaa

#774000
1aaaaa
b111010100100 aaaae

#775000
0aaaaa

#776000
1aaaaa
b111010100011 aaaae

#777000
0aaaaa

#778000
1aaaaa
b111010100010 aaaae

#779000
0aaaaa

#780000
1aaaaa
b111010100001 aaaae

#781000
0aaaaa

#782000
1aaaaa
b111010100000 aaaae

#783000
0aaaaa

#784000
1aaaaa
b111010011111 aaaae

#785000
0aaaaa

#786000
1aaaaa
b111010011110 aaaae

#787000
0aaaaa

#788000
1aaaaa
b111010011101 aaaae

#789000
0aaaaa

#790000
1aaaaa
b111010011100 aaaae

#791000
0aaaaa

#792000
1aaaaa
b111010011011 aaaae

#793000
0aaaaa

#794000
1aaaaa
b111010011010 aaaae

#795000
0aaaaa

#796000
1aaaaa
b111010011001 aaaae

#797000
0aaaaa

#798000
1aaaaa
b111010011000 aaaae

#799000
0aaaaa

#800000
1aaaaa
b111010010111 aaaae

#801000
0aaaaa

#802000
1aaaaa
b111010010110 aaaae

#803000
0aaaaa

#804000
1aaaaa
b111010010101 aaaae

#805000
0aaaaa

#806000
1aaaaa
b111010010100 aaaae

#807000
0aaaaa

#808000
1aaaaa
b111010010011 aaaae

#809000
0aaaaa

#810000
1aaaaa
b111010010010 aaaae

#811000
0aaaaa

#812000
1aaaaa
b111010010001 aaaae

#813000
0aaaaa

#814000
1aaaaa
b111010010000 aaaae

#815000
0aaaaa

#816000
1aaaaa
b111010001111 aaaae

#817000
0aaaaa

#818000
1aaaaa
b111010001110 aaaae

#819000
0aaaaa

#820000
1aaaaa
b111010001101 aaaae

#821000
0aaaaa

#822000
1aaaaa
b111010001100 aaaae

#823000
0aaaaa

#824000
1aaaaa
b111010001011 aaaae

#825000
0aaaaa

#826000
1aaaaa
b111010001010 aaaae

#827000
0aaaaa

#828000
1aaaaa
b111010001001 aaaae

#829000
0aaaaa

#830000
1aaaaa
b111010001000 aaaae

#831000
0aaaaa

#832000
1aaaaa
b111010000111 aaaae

#833000
0aaaaa

#834000
1aaaaa
b111010000110 aaaae

#835000
0aaaaa

#836000
1aaaaa
b111010000101 aaaae

#837000
0aaaaa

#838000
1aaaaa
b111010000100 aaaae

#839000
0aaaaa

#840000
1aaaaa
b111010000011 aaaae

#841000
0aaaaa

#842000
1aaaaa
b111010000010 aaaae

#843000
0aaaaa

#844000
1aaaaa
b111010000001 aaaae

#845000
0aaaaa

#846000
1aaaaa
b111010000000 aaaae

#847000
0aaaaa

#848000
1aaaaa
b111001111111 aaaae

#849000
0aaaaa

#850000
1aaaaa
b111001111110 aaaae

#851000
0aaaaa

#852000
1aaaaa
b111001111101 aaaae

#853000
0aaaaa

#854000
1aaaaa
b111001111100 aaaae

#855000
0aaaaa

#856000
1aaaaa
b111001111011 aaaae

#857000
0aaaaa

#858000
1aaaaa
b111001111010 aaaae

#859000
0aaaaa

#860000
1aaaaa
b111001111001 aaaae

#861000
0aaaaa

#862000
1aaaaa
b111001111000 aaaae

#863000
0aaaaa

#864000
1aaaaa
b111001110111 aaaae

#865000
0aaaaa

#866000
1aaaaa
b111001110110 aaaae

#867000
0aaaaa

#868000
1aaaaa
b111001110101 aaaae

#869000
0aaaaa

#870000
1aaaaa
b111001110100 aaaae

#871000
0aaaaa

#872000
1aaaaa
b111001110011 aaaae

#873000
0aaaaa

#874000
1aaaaa
b111001110010 aaaae

#875000
0aaaaa

#876000
1aaaaa
b111001110001 aaaae

#877000
0aaaaa

#878000
1aaaaa
b111001110000 aaaae

#879000
0aaaaa

#880000
1aaaaa
b111001101111 aaaae

#881000
0aaaaa

#882000
1aaaaa
b111001101110 aaaae

#883000
0aaaaa

#884000
1aaaaa
b111001101101 aaaae

#885000
0aaaaa

#886000
1aaaaa
b111001101100 aaaae

#887000
0aaaaa

#888000
1aaaaa
b111001101011 aaaae

#889000
0aaaaa

#890000
1aaaaa
b111001101010 aaaae

#891000
0aaaaa

#892000
1aaaaa
b111001101001 aaaae

#893000
0aaaaa

#894000
1aaaaa
b111001101000 aaaae

#895000
0aaaaa

#896000
1aaaaa
b111001100111 aaaae

#897000
0aaaaa

#898000
1aaaaa
b111001100110 aaaae

#899000
0aaaaa

#900000
1aaaaa
b111001100101 aaaae

#901000
0aaaaa

#902000
1aaaaa
b111001100100 aaaae

#903000
0aaaaa

#904000
1aaaaa
b111001100011 aaaae

#905000
0aaaaa

#906000
1aaaaa
b111001100010 aaaae

#907000
0aaaaa

#908000
1aaaaa
b111001100001 aaaae

#909000
0aaaaa

#910000
1aaaaa
b111001100000 aaaae

#911000
0aaaaa

#912000
1aaaaa
b111001011111 aaaae

#913000
0aaaaa

#914000
1aaaaa
b111001011110 aaaae

#915000
0aaaaa

#916000
1aaaaa
b111001011101 aaaae

